{
  "exports": [
    "ol.Map",
    "ol.Map#*",
    "ol.View",
    "ol.View#*",
    "ol.proj.fromLonLat",
    "ol.proj.transform",
    "ol.interaction.defaults",
    "ol.interaction.Select",
    "ol.interaction.Select#*",
    "ol.Collection",
    "ol.Collection#*",
    "ol.Overlay",
    "ol.Overlay#*",
    "ol.layer.Layer#*",
    "ol.layer.Group",
    "ol.layer.Group#*",
    "ol.layer.Tile",
    "ol.layer.Tile#*",
    "ol.layer.Vector",
    "ol.layer.Vector#*",
    "ol.source.XYZ",
    "ol.source.XYZ#*",
    "ol.source.Vector",
    "ol.source.Vector#*",
    "ol.loadingstrategy.bbox",
    "ol.format.EsriJSON",
    "ol.format.EsriJSON#*",
    "ol.geom.Point",
    "ol.geom.Point#*",
    "ol.geom.MultiPoint",
    "ol.geom.MultiPoint#*",
    "ol.geom.LineString",
    "ol.geom.LineString#*",
    "ol.geom.MultiLineString",
    "ol.geom.MultiLineString#*",
    "ol.geom.Polygon",
    "ol.geom.Polygon#*",
    "ol.geom.MultiPolygon",
    "ol.geom.MultiPolygon#*",
    "ol.geom.LinearRing",
    "ol.geom.LinearRing#*",
    "ol.Feature",
    "ol.Feature#*",
    "ol.style.Style",
    "ol.style.Style#*",
    "ol.style.Fill",
    "ol.style.Fill#*",
    "ol.style.Stroke",
    "ol.style.Stroke#*",
    "ol.style.Circle",
    "ol.style.Circle#*",
    "ol.geom.Point",
    "ol.geom.Point#*"
  ],
  "compile": {
    "externs": [
      "externs/bingmaps.js",
      "externs/closure-compiler.js",
      "externs/geojson.js",
      "externs/oli.js",
      "externs/olx.js",
      "externs/proj4js.js",
      "externs/tilejson.js",
      "externs/topojson.js"
    ],
    "define": [
      "ol.ENABLE_PROJ4JS=false",
      "ol.ENABLE_VECTOR_TILE=false",
      "ol.ENABLE_DOM=false",
      "ol.ENABLE_WEBGL=false",
      "ol.ENABLE_CANVAS=true",
      "goog.DEBUG=true"
    ],

    "extra_annotation_name": [
      "api", "observable"
    ],
    "compilation_level": "ADVANCED",
    "use_types_for_optimization": true,
    "output_wrapper": "(function(){%output%})();"
  }
}